# Exported from ProBuilder
# http://www.procore3d.com/probuilder
# 4/22/2018 4:28:27 PM

mtllib ./rock1.mtl
o rock1

g Cube
v -0.4148904 0.01245977 0.6416306
v -0.6724588 0.01245977 0.6416306
v -0.4643233 0.1144181 0.5915438
v -0.623026 0.1144181 0.5915438
v -1.311481 -0.005186173 -1.308262
v 0.3114807 -0.005186173 -1.308262
v -1 0.996788 -1.003192
v 0 0.996788 -1.003192
v -1.311481 0.005206709 0.314666
v -1.311481 1.026826E-05 -0.4967981
v -1 0.8222273 -0.5020635
v -1 0.6476667 -0.0009353578
v -1.331449 0.206326 -0.4826957
v -1.331449 0.2041579 -0.8212566
v -1.201492 0.5036423 -0.693215
v -1.201492 0.451888 -0.4842682
v 0.3114807 -0.005186173 -1.308262
v 0.3114807 1.026826E-05 -0.4967981
v 0 0.8222273 -0.5020635
v 0 0.996788 -1.003192
v 0.3114807 1.026826E-05 -0.4967981
v 0.3114807 0.005206709 0.314666
v 0 0.6476667 -0.0009353578
v 0 0.8222273 -0.5020635
v 0 0.6476667 -0.0009353578
v -1 0.6476667 -0.0009353578
v -1 0.8222273 -0.5020635
v 0 0.8222273 -0.5020635
v -0.6937501 1.077391 -0.6561317
v -0.6937501 1.144994 -0.8696324
v -0.3062499 1.144994 -0.8696324
v -0.3062499 1.077391 -0.6561317
v 0.3114807 -0.005186173 -1.308262
v -1.311481 -0.005186173 -1.308262
v -1.311481 1.026826E-05 -0.4967981
v 0.3114807 1.026826E-05 -0.4967981
v -1.311481 1.026826E-05 -0.4967981
v -1.311481 0.005206709 0.314666
v 0.3114807 0.005206709 0.314666
v 0.3114807 1.026826E-05 -0.4967981
v -1 0.996788 -1.003192
v 0 0.996788 -1.003192
v -0.6937501 1.144994 -0.8696324
v -0.3062499 1.144994 -0.8696324
v 0 0.996788 -1.003192
v 0 0.8222273 -0.5020635
v -0.3062499 1.144994 -0.8696324
v -0.3062499 1.077391 -0.6561317
v -1 0.8222273 -0.5020635
v -1 0.996788 -1.003192
v -0.6937501 1.077391 -0.6561317
v -0.6937501 1.144994 -0.8696324
v 0 0.8222273 -0.5020635
v -1 0.8222273 -0.5020635
v -0.3062499 1.077391 -0.6561317
v -0.6937501 1.077391 -0.6561317
v -1.311481 1.026826E-05 -0.4967981
v -1.311481 -0.005186173 -1.308262
v -1.331449 0.206326 -0.4826957
v -1.331449 0.2041579 -0.8212566
v -1 0.8222273 -0.5020635
v -1.311481 1.026826E-05 -0.4967981
v -1.201492 0.451888 -0.4842682
v -1.331449 0.206326 -0.4826957
v -1.311481 -0.005186173 -1.308262
v -1 0.996788 -1.003192
v -1.331449 0.2041579 -0.8212566
v -1.201492 0.5036423 -0.693215
v -1 0.996788 -1.003192
v -1 0.8222273 -0.5020635
v -1.201492 0.5036423 -0.693215
v -1.201492 0.451888 -0.4842682
v 0.3114807 0.005206709 0.314666
v -1.311481 0.005206709 0.314666
v -0.4148904 0.01245977 0.6416306
v -0.6724588 0.01245977 0.6416306
v 0 0.6476667 -0.0009353578
v 0.3114807 0.005206709 0.314666
v -0.4643233 0.1144181 0.5915438
v -0.4148904 0.01245977 0.6416306
v -1.311481 0.005206709 0.314666
v -1 0.6476667 -0.0009353578
v -0.6724588 0.01245977 0.6416306
v -0.623026 0.1144181 0.5915438
v -1 0.6476667 -0.0009353578
v 0 0.6476667 -0.0009353578
v -0.623026 0.1144181 0.5915438
v -0.4643233 0.1144181 0.5915438

vn 0 0.440918 0.8975474
vn 0 0.440918 0.8975474
vn 0 0.440918 0.8975475
vn 0 0.440918 0.8975474
vn 0 0.2912683 -0.9566414
vn 0 0.2912683 -0.9566414
vn 0 0.2912683 -0.9566414
vn 0 0.2912683 -0.9566414
vn -0.9148679 0.4004337 0.05166808
vn -0.9351487 0.3542481 -0.002268529
vn -0.9148679 0.4004337 0.05166808
vn -0.8501375 0.4972564 0.173212
vn -0.905385 0.4228611 0.03829731
vn -0.9169515 0.3989907 -0.00255505
vn -0.905385 0.4228611 0.03829731
vn -0.877664 0.4652179 0.1152304
vn 0.9475839 0.3168801 0.04088714
vn 0.9351487 0.3542481 -0.002268528
vn 0.9475839 0.3168801 0.04088714
vn 0.9584513 0.269381 0.09383493
vn 0.9351487 0.3542481 -0.002268528
vn 0.9148679 0.4004336 0.05166807
vn 0.8501374 0.4972564 0.1732119
vn 0.9148679 0.4004336 0.05166807
vn 0 0.9443475 0.3289496
vn 0 0.9443475 0.3289496
vn 0 0.9443475 0.3289496
vn 0 0.9443475 0.3289496
vn 0 0.9533482 0.3018728
vn 0 0.9533482 0.3018728
vn 0 0.9533482 0.3018728
vn 0 0.9533482 0.3018728
vn 0 -0.9999794 0.006403652
vn 0 -0.9999794 0.006403652
vn 0 -0.9999794 0.006403652
vn 0 -0.9999794 0.006403652
vn 0 -0.9999794 0.006403652
vn 0 -0.9999794 0.006403652
vn 0 -0.9999794 0.006403652
vn 0 -0.9999794 0.006403652
vn 0 0.6694441 -0.7428623
vn 0 0.6694442 -0.7428623
vn 0 0.6694442 -0.7428624
vn 0 0.6694441 -0.7428623
vn 0.5226086 0.8074709 0.2736256
vn 0.5277553 0.8021255 0.2794086
vn 0.5100704 0.820006 0.2596507
vn 0.5226086 0.8074709 0.2736256
vn -0.5226086 0.8074709 0.2736256
vn -0.5147897 0.8096046 0.2820139
vn -0.5405157 0.8020842 0.2539759
vn -0.5226086 0.8074709 0.2736256
vn 0 0.5168872 0.8560535
vn 0 0.5168872 0.8560535
vn 0 0.5168872 0.8560535
vn 0 0.5168872 0.8560535
vn -0.9953448 -0.09637608 0.0006171715
vn -0.9953448 -0.09637608 0.0006171715
vn -0.9953448 -0.09637608 0.0006171716
vn -0.9953448 -0.09637608 0.0006171715
vn 0.1962837 -0.07488608 0.9776834
vn 0.1550612 -0.05242444 0.9865129
vn 0.8437052 -0.4445817 0.3008465
vn 0.1962837 -0.07488608 0.9776834
vn -0.9250284 0.3569928 -0.1299171
vn -0.9413671 0.3226577 -0.09858987
vn -0.8501325 0.4702251 -0.2369878
vn -0.9250284 0.3569928 -0.1299171
vn -0.873531 0.463782 0.1478165
vn -0.8627967 0.4774159 0.1663008
vn -0.894945 0.4330891 0.1072723
vn -0.873531 0.463782 0.1478165
vn 0 -0.999754 0.02217755
vn 0 -0.9997541 0.02217755
vn 0 -0.999754 0.02217755
vn 0 -0.999754 0.02217755
vn 0.3489205 0.5440223 0.763082
vn 0.3489216 0.5440215 0.763082
vn 0.3489134 0.544027 0.763082
vn 0.3489205 0.5440223 0.763082
vn -0.3851911 0.550568 0.7406097
vn -0.3851912 0.550567 0.7406104
vn -0.3851904 0.5505738 0.7406057
vn -0.3851911 0.550568 0.7406097
vn 0 0.7432834 0.6689767
vn 0 0.7432833 0.6689767
vn 0 0.7432835 0.6689767
vn 0 0.7432834 0.6689767

vt -0.4148904 -0.273199
vt -0.6724588 -0.273199
vt -0.4643233 -0.1596024
vt -0.623026 -0.1596024
vt 1.311481 -0.3900191
vt -0.3114807 -0.3900191
vt 1 0.6573683
vt 0 0.6573683
vt 0.3114808 -0.5706975
vt -0.5 -0.5706975
vt -0.5 0.3051478
vt -5.869608E-11 0.1450951
vt -0.4845766 -0.4405143
vt -0.8231445 -0.4405143
vt -0.6931877 -0.1157545
vt -0.4845766 -0.1626797
vt -1.321798 -0.09087778
vt -0.5108377 -0.1008737
vt -0.4996791 0.778258
vt -0.9993581 0.9513441
vt -0.5108377 -0.1008737
vt 0.3001222 -0.1108696
vt -5.86584E-11 0.605172
vt -0.4996791 0.778258
vt 0 -0.2158903
vt 1 -0.2158903
vt 1 -0.746551
vt 0 -0.746551
vt 0.6937501 -0.95283
vt 0.6937501 -1.176778
vt 0.3062499 -1.176778
vt 0.3062499 -0.95283
vt -0.3114807 -1.311481
vt 1.311481 -1.311481
vt 1.311481 -0.5
vt -0.3114807 -0.5
vt 1.311481 -0.5
vt 1.311481 0.3114808
vt -0.3114807 0.3114808
vt -0.3114807 -0.5
vt 1 0.06437266
vt 0 0.06437266
vt 0.6937501 0.2638801
vt 0.3062499 0.2638801
vt 0.5374301 -1.200065
vt 0.4418932 -0.6780748
vt 0.8748826 -1.059644
vt 0.8378162 -0.8388522
vt 0.3821791 -0.8312889
vt 0.2843169 -1.352848
vt -0.01449729 -0.9902925
vt -0.05246588 -1.210932
vt 0 0.9622808
vt -1 0.9622808
vt -0.3062499 1.26035
vt -0.6937501 1.26035
vt -0.5 0.126398
vt -1.311481 0.126398
vt -0.4845766 0.3335836
vt -0.8231445 0.3335836
vt -0.8473765 0.7514544
vt -1.149401 -0.07429986
vt -1.046523 0.3794226
vt -1.172535 0.1319712
vt -1.030973 -0.5301347
vt -0.786114 0.5347992
vt -0.5480978 -0.3105228
vt -0.4459369 0.02245692
vt -1.165668 0.5240792
vt -0.6740612 0.3242714
vt -0.9007691 -0.03243271
vt -0.6956598 -0.09704529
vt 0.3114807 0.3114421
vt -1.311481 0.3114421
vt -0.4148904 0.6384871
vt -0.6724588 0.6384871
vt 2.431682E-11 0.542788
vt 0.1544521 -0.2224074
vt -0.6666375 -0.0948453
vt -0.6421255 -0.2162824
vt -1.021497 -0.480051
vt -0.8880702 0.2890893
vt -0.303674 -0.4738938
vt -0.2824988 -0.3518307
vt 1 -0.4341926
vt 0 -0.4341926
vt 0.623026 0.3629181
vt 0.4643233 0.3629181

g Cube
usemtl Default_Prototype
f 3/3/3 4/4/4 2/2/2 1/1/1
f 7/7/7 8/8/8 6/6/6 5/5/5
f 12/12/12 11/11/11 10/10/10 9/9/9
f 16/16/16 15/15/15 14/14/14 13/13/13
f 18/18/18 17/17/17 20/20/20 19/19/19
f 23/23/23 22/22/22 21/21/21 24/24/24
f 26/26/26 25/25/25 28/28/28 27/27/27
f 29/29/29 32/32/32 31/31/31 30/30/30
f 33/33/33 36/36/36 35/35/35 34/34/34
f 40/40/40 39/39/39 38/38/38 37/37/37
f 43/43/43 44/44/44 42/42/42 41/41/41
f 47/47/47 48/48/48 46/46/46 45/45/45
f 51/51/51 52/52/52 50/50/50 49/49/49
f 55/55/55 56/56/56 54/54/54 53/53/53
f 59/59/59 60/60/60 58/58/58 57/57/57
f 63/63/63 64/64/64 62/62/62 61/61/61
f 67/67/67 68/68/68 66/66/66 65/65/65
f 71/71/71 72/72/72 70/70/70 69/69/69
f 75/75/75 76/76/76 74/74/74 73/73/73
f 79/79/79 80/80/80 78/78/78 77/77/77
f 83/83/83 84/84/84 82/82/82 81/81/81
f 87/87/87 88/88/88 86/86/86 85/85/85

